{
    "openapi": "3.0.0",
    "info": {
        "title": "TurkApp",
        "description": "TurkApp Laravel Api",
        "contact": {
            "email": "ehsan.jnra@gmail.com"
        },
        "version": "1.0.0"
    },
    "servers": [
        {
            "url": "http://turkapptest.local/api/v1",
            "description": "Development API"
        }
    ],
    "paths": {
        "/register": {
            "post": {
                "tags": [
                    "Auth"
                ],
                "summary": "User Register",
                "description": "User Register here",
                "operationId": "Register",
                "requestBody": {
                    "content": {
                        "multipart/form-data": {
                            "schema": {
                                "required": [
                                    "name",
                                    "email",
                                    "password",
                                    "password_confirmation"
                                ],
                                "properties": {
                                    "name": {
                                        "type": "text"
                                    },
                                    "email": {
                                        "type": "text"
                                    },
                                    "password": {
                                        "type": "password"
                                    },
                                    "password_confirmation": {
                                        "type": "password"
                                    }
                                },
                                "type": "object"
                            }
                        },
                        "application/json": {
                            "schema": {}
                        }
                    }
                },
                "responses": {
                    "201": {
                        "description": "Register Successfully",
                        "content": {
                            "application/json": {
                                "schema": {}
                            }
                        }
                    },
                    "200": {
                        "description": "Register Successfully",
                        "content": {
                            "application/json": {
                                "schema": {}
                            }
                        }
                    },
                    "422": {
                        "description": "Unprocessable Entity",
                        "content": {
                            "application/json": {
                                "schema": {}
                            }
                        }
                    },
                    "400": {
                        "description": "Bad request"
                    },
                    "404": {
                        "description": "Resource Not Found"
                    }
                }
            }
        },
        "/login": {
            "post": {
                "tags": [
                    "Auth"
                ],
                "summary": "User Login",
                "description": "Login User Here",
                "operationId": "authLogin",
                "requestBody": {
                    "content": {
                        "multipart/form-data": {
                            "schema": {
                                "required": [
                                    "email",
                                    "password"
                                ],
                                "properties": {
                                    "email": {
                                        "type": "email"
                                    },
                                    "password": {
                                        "type": "password"
                                    }
                                },
                                "type": "object"
                            }
                        },
                        "application/json": {
                            "schema": {}
                        }
                    }
                },
                "responses": {
                    "201": {
                        "description": "Login Successfully",
                        "content": {
                            "application/json": {
                                "schema": {}
                            }
                        }
                    },
                    "200": {
                        "description": "Login Successfully",
                        "content": {
                            "application/json": {
                                "schema": {}
                            }
                        }
                    },
                    "422": {
                        "description": "Unprocessable Entity",
                        "content": {
                            "application/json": {
                                "schema": {}
                            }
                        }
                    },
                    "400": {
                        "description": "Bad request"
                    },
                    "404": {
                        "description": "Resource Not Found"
                    }
                }
            }
        },
        "/logout": {
            "delete": {
                "tags": [
                    "User"
                ],
                "summary": "Logout User",
                "description": "Logout User",
                "operationId": "logout",
                "responses": {
                    "201": {
                        "description": "Logged out",
                        "content": {
                            "application/json": {
                                "schema": {}
                            }
                        }
                    },
                    "200": {
                        "description": "Logged out",
                        "content": {
                            "application/json": {
                                "schema": {}
                            }
                        }
                    },
                    "422": {
                        "description": "Unprocessable Entity",
                        "content": {
                            "application/json": {
                                "schema": {}
                            }
                        }
                    },
                    "400": {
                        "description": "Bad request"
                    },
                    "404": {
                        "description": "Token invalid"
                    }
                },
                "security": [
                    {
                        "bearerAuth": []
                    }
                ]
            }
        },
        "/user/getUser": {
            "get": {
                "tags": [
                    "User"
                ],
                "summary": "Get User Detail",
                "description": "Get User Detail",
                "operationId": "getuser",
                "responses": {
                    "201": {
                        "description": "Success",
                        "content": {
                            "application/json": {
                                "schema": {}
                            }
                        }
                    },
                    "200": {
                        "description": "Success",
                        "content": {
                            "application/json": {
                                "schema": {}
                            }
                        }
                    },
                    "422": {
                        "description": "Unprocessable Entity",
                        "content": {
                            "application/json": {
                                "schema": {}
                            }
                        }
                    },
                    "400": {
                        "description": "Bad request"
                    },
                    "404": {
                        "description": "Token invalid"
                    }
                },
                "security": [
                    {
                        "bearerAuth": []
                    }
                ]
            }
        }
    },
    "components": {
        "securitySchemes": {
            "bearerAuth": {
                "type": "http",
                "scheme": "bearer"
            }
        }
    },
    "tags": [
        {
            "name": "User",
            "description": "API Endpoints of User"
        }
    ],
    "security": {
        "passport": {
            "type": "oauth2",
            "description": "Laravel passport oauth2 security.",
            "in": "header",
            "scheme": "https",
            "flows": {
                "password": {
                    "authorizationUrl": "http://turkapptest.local/oauth/authorize",
                    "tokenUrl": "http://turkapptest.local/oauth/token",
                    "refreshUrl": "http://turkapptest.local/token/refresh",
                    "scopes": []
                }
            }
        }
    }
}